[
    {
        "_id": "55ba495b2e8fecf03fd137cc",
        "index": 0,
        "guid": "d35b19f1-31ac-4d5e-a641-cb66af11cb1b",
        "isActive": true,
        "balance": "$2,363.44",
        "picture": "http://placehold.it/32x32",
        "name": "proident",
        "company": "DOGTOWN",
        "about": "Culpa tempor ex cupidatat culpa officia veniam. Aliqua esse adipisicing aliquip ipsum velit aliqua. Et aliqua magna irure excepteur. Esse sint officia est minim fugiat aliqua aliqua amet excepteur ea cillum. Minim est ea eiusmod voluptate enim proident reprehenderit nulla sit eiusmod deserunt. Fugiat deserunt dolor veniam commodo ullamco est in dolor dolore laboris.",
        "tags": [
            "deserunt",
            "id",
            "excepteur",
            "elit",
            "ullamco",
            "exercitation",
            "ad",
            "custom_tag"
        ]
    },
    {
        "_id": "55ba495bafccdb689bfba39b",
        "index": 1,
        "guid": "85071e08-3763-4f0f-b9a9-b9bc8a1106f5",
        "isActive": false,
        "balance": "$3,895.33",
        "picture": "http://placehold.it/32x32",
        "name": "ullamco",
        "company": "PLAYCE",
        "about": "Qui qui ipsum consectetur ex in duis consequat duis quis. Nisi ipsum ad qui anim. Qui non aliquip in ad sunt nulla irure est nulla aliquip. Sunt consequat anim qui tempor esse veniam nulla minim nisi magna labore ullamco.",
        "tags": [
            "deserunt",
            "id",
            "excepteur",
            "elit",
            "ullamco",
            "exercitation",
            "ad",
            "custom_tag"
        ]
    },
    {
        "_id": "55ba495bd915fb19f470e7d5",
        "index": 2,
        "guid": "a9103cc1-4506-4116-99b7-92d5a83cf490",
        "isActive": true,
        "balance": "$3,306.46",
        "picture": "http://placehold.it/32x32",
        "name": "cupidatat",
        "company": "GYNKO",
        "about": "Aute proident et aliquip duis. Occaecat ut exercitation elit nulla irure pariatur veniam cillum tempor officia est do qui nostrud. Aute consectetur qui aliqua quis non elit labore aute aute nisi enim.",
        "tags": [
            "deserunt",
            "id",
            "excepteur",
            "elit",
            "ullamco",
            "exercitation",
            "ad",
            "custom_tag"
        ]
    },
    {
        "_id": "55ba495b0c5ef5198bc5b173",
        "index": 3,
        "guid": "ae8cb492-164d-4c07-98bb-abd8e0341e35",
        "isActive": true,
        "balance": "$1,214.66",
        "picture": "http://placehold.it/32x32",
        "name": "mollit",
        "company": "DYMI",
        "about": "Pariatur occaecat amet commodo ut est elit est esse exercitation esse veniam veniam sint. Fugiat culpa consectetur non do commodo nostrud ea eiusmod laborum ea velit. Culpa labore excepteur ad et laborum id nostrud reprehenderit reprehenderit. Velit mollit ex consequat qui esse labore culpa. Officia et veniam irure nulla occaecat duis magna Lorem reprehenderit.",
        "tags": [
            "deserunt",
            "id",
            "excepteur",
            "elit",
            "ullamco",
            "exercitation",
            "ad",
            "custom_tag"
        ]
    },
    {
        "_id": "55ba495b810bf989538c1143",
        "index": 4,
        "guid": "1198d770-0465-4a03-a855-77abb5450694",
        "isActive": true,
        "balance": "$3,339.50",
        "picture": "http://placehold.it/32x32",
        "name": "cillum",
        "company": "AQUAFIRE",
        "about": "Ea aliqua voluptate excepteur consequat. Irure elit culpa do id commodo et elit qui elit adipisicing duis. Lorem ea est esse eiusmod tempor ad reprehenderit adipisicing aliquip adipisicing. Officia eu cillum aliquip dolor labore in elit sit veniam nulla.",
        "tags": [
            "deserunt",
            "id",
            "excepteur",
            "elit",
            "ullamco",
            "exercitation",
            "ad",
            "custom_tag"
        ]
    }
]
